<svg xmlns="http://www.w3.org/2000/svg" width="28" height="28" viewBox="0 0 28 28">
  <path fill="#ff6033" fill-rule="evenodd" d="M11.5208299,17.7500991 C12.4700218,17.7448041 13.2446793,18.5106921 13.2500137,19.464103 L13.2500137,24.285103 C13.2446834,25.2395548 12.4689818,26.0053973 11.5217622,26.0001981 L3.72581744,25.9870978 C2.77715058,25.9906442 2.00534508,25.2259647 2.00001372,24.273103 L2.00001372,19.4598975 C2.00534789,18.5107403 2.77895703,17.7448038 3.72401372,17.7500068 L11.5208299,17.7500991 Z M24.2737915,11.750103 C25.2279414,11.753642 25.9995377,12.5296062 25.9960444,13.481103 L25.9960444,24.2547236 C25.9977723,25.2078608 25.2292871,25.9817964 24.2732637,25.987102 L16.4732637,26.000102 L16.4706248,26.000102 C15.5163978,25.9983346 14.7442532,25.222915 14.745988,24.270103 L14.745988,13.4838713 C14.7424898,12.5296062 15.514086,11.753642 16.4710137,11.750103 L24.2737915,11.750103 Z M11.5250137,19.2500655 L3.72451372,19.2500655 C3.5993961,19.249404 3.50068138,19.3471396 3.50000193,19.464103 L3.50000193,24.2688975 C3.50068245,24.3902577 3.59889329,24.4875618 3.72426521,24.487104 L11.5271897,24.5001406 C11.6490255,24.5008085 11.7486009,24.4029502 11.7500255,24.2822624 L11.7500255,19.4683085 C11.7493485,19.3475671 11.6500589,19.2494016 11.5250137,19.2500655 Z M24.2710137,13.2500978 L16.4737915,13.2500978 C16.3474686,13.2505657 16.2455394,13.3530719 16.2460036,13.481103 L16.2460036,24.269603 C16.2458122,24.3761315 16.3166149,24.4650213 16.4129219,24.4918267 L16.473,24.5 L24.2678471,24.4871146 C24.3948254,24.4864091 24.496255,24.3842602 24.4960288,24.256103 L24.4960288,13.4783347 C24.496488,13.3530719 24.3945589,13.2505657 24.2710137,13.2500978 Z M3.72726372,2.00010403 L11.5287966,2.01310816 C12.4814887,2.01664319 13.2517785,2.79184882 13.2500245,3.74310299 L13.2500245,14.520103 C13.2517772,15.4724066 12.4814387,16.2465658 11.5250137,16.250103 L3.72362483,16.250103 C2.76939505,16.2483346 1.99824929,15.4739106 2.00000299,14.521103 L2.00000299,3.73148949 C1.99824929,2.77729514 2.77039525,2.00187137 3.72726372,2.00010403 Z M3.72740261,3.50010171 C3.60177675,3.50033435 3.49977788,3.60276621 3.50000952,3.73010299 L3.50000952,14.520603 C3.49977788,14.6484416 3.60077856,14.7498716 3.72501372,14.7501081 L11.522236,14.7501081 C11.648751,14.7496396 11.7502499,14.6476373 11.7500179,14.5214895 L11.7500179,3.74171392 C11.7502493,3.61614001 11.6483218,3.51356199 11.5247637,3.51310195 L3.72740261,3.50010171 Z M24.2634451,2.00004769 C25.2126068,1.99304851 25.9888958,2.75728324 25.9960137,3.71210299 L25.9960137,8.53810299 C25.9889,9.49236524 25.2154764,10.2553894 24.2710137,10.2501307 L16.4765822,10.25011 C15.5273731,10.2571578 14.7531312,9.49387512 14.7460137,8.53910299 L14.7460137,3.72088958 C14.7513526,2.7726762 15.5250264,2.00778786 16.4677611,2.01310404 L24.2634451,2.00004769 Z M24.2702664,3.50006161 L16.4648003,3.51309116 C16.3449517,3.51241785 16.2466746,3.60957903 16.2460137,3.72510299 L16.2460137,8.53531683 C16.2478818,8.65547078 16.3454607,8.75104232 16.4710137,8.750152 L24.2751805,8.750152 C24.3960812,8.75081394 24.4941419,8.65467248 24.4960347,8.53431493 L24.4960347,3.71771031 C24.4951331,3.59712287 24.395621,3.49915599 24.2702664,3.50006161 Z"/>
</svg>
